<?xml version="1.0" encoding="UTF-8"?>
<glyph name="Cdotaccent" format="2">
	<advance width="800"/>
	<unicode hex="010A"/>
	<outline>
		<component base="C"/>
		<component base="uni0307" xOffset="800"/>
	</outline>
</glyph>
