<?xml version="1.0" encoding="UTF-8"?>
<glyph name="r" format="2">
	<advance width="800"/>
	<unicode hex="0072"/>
	<outline>
		<component base="_part.7" xScale="-1" yScale="-1" xOffset="200" yOffset="700"/>
		<component base="_part.7" xScale="0" xyScale="1" yScale="0" yxScale="-1" xOffset="750" yOffset="550"/>
		<component base="_part.5" xScale="0" xyScale="1" yScale="0" yxScale="-1" xOffset="750" yOffset="350"/>
		<component base="_part.5" xOffset="200"/>
		<component base="_part.3" xScale="0" xyScale="1" yScale="0" yxScale="-1" xOffset="950" yOffset="-50"/>
		<component base="_part.3" xOffset="400" yOffset="-200"/>
		<component base="_part.3" xOffset="400" yOffset="-400"/>
	</outline>
</glyph>
