<?xml version="1.0" encoding="UTF-8"?>
<glyph name="uni0438" format="2">
	<advance width="800"/>
	<unicode hex="0438"/>
	<outline>
		<component base="_part.3" xScale="-1" yScale="-1" xOffset="400" yOffset="500"/>
		<component base="_part.3" xScale="-1" xOffset="800" yOffset="200"/>
		<component base="_part.7" xScale="-1" xOffset="600"/>
		<component base="_part.7" xScale="-1" yScale="-1" xOffset="400" yOffset="700"/>
		<component base="_part.7" xScale="-1" xOffset="800"/>
		<component base="_part.7" xScale="-1" yScale="-1" xOffset="200" yOffset="700"/>
	</outline>
</glyph>
