<?xml version="1.0" encoding="UTF-8"?>
<glyph name="Wgrave" format="2">
	<advance width="800"/>
	<unicode hex="1E80"/>
	<outline>
		<component base="gravecomb" xOffset="800"/>
		<component base="_part.smallW"/>
	</outline>
</glyph>
